%YAML 1.1
%TAG !u! tag:unity3d.com,2011:
--- !u!74 &7400000
AnimationClip:
  m_ObjectHideFlags: 0
  m_CorrespondingSourceObject: {fileID: 0}
  m_PrefabInstance: {fileID: 0}
  m_PrefabAsset: {fileID: 0}
  m_Name: Die
  serializedVersion: 6
  m_Legacy: 0
  m_Compressed: 0
  m_UseHighQualityCurve: 1
  m_RotationCurves: []
  m_CompressedRotationCurves: []
  m_EulerCurves: []
  m_PositionCurves: []
  m_ScaleCurves: []
  m_FloatCurves: []
  m_PPtrCurves:
  - curve:
    - time: 0
      value: {fileID: 21300000, guid: 87593e94fa68d464d80889b0b8d1a24c, type: 3}
    - time: 0.06666667
      value: {fileID: 21300000, guid: 7629911ae48efd34bb51f498854ec26a, type: 3}
    - time: 0.1
      value: {fileID: 21300000, guid: c9f2a3adc516516478373be0da22a3dd, type: 3}
    - time: 0.15
      value: {fileID: 21300000, guid: f6322cd5b2dc00d4283dce63688c54e1, type: 3}
    - time: 0.2
      value: {fileID: 21300000, guid: f63ff3736fe56364d95783a9a81bd186, type: 3}
    - time: 0.25
      value: {fileID: 21300000, guid: c0e145418bc251447a034d1b89ecb8da, type: 3}
    - time: 0.3
      value: {fileID: 21300000, guid: 8295e2d7d9a6c5f43ba4558b4dc246ed, type: 3}
    - time: 0.35
      value: {fileID: 21300000, guid: c0d0d0af820f4094cb0f739b96bdd45e, type: 3}
    - time: 0.38333333
      value: {fileID: 21300000, guid: 89b228e2fab990249b1e17aef92b2850, type: 3}
    - time: 0.45
      value: {fileID: 21300000, guid: 115b0630e53f253439dc9c6f16eea25d, type: 3}
    attribute: m_Sprite
    path: 
    classID: 212
    script: {fileID: 0}
  m_SampleRate: 60
  m_WrapMode: 0
  m_Bounds:
    m_Center: {x: 0, y: 0, z: 0}
    m_Extent: {x: 0, y: 0, z: 0}
  m_ClipBindingConstant:
    genericBindings:
    - serializedVersion: 2
      path: 0
      attribute: 0
      script: {fileID: 0}
      typeID: 212
      customType: 23
      isPPtrCurve: 1
    pptrCurveMapping:
    - {fileID: 21300000, guid: 87593e94fa68d464d80889b0b8d1a24c, type: 3}
    - {fileID: 21300000, guid: 7629911ae48efd34bb51f498854ec26a, type: 3}
    - {fileID: 21300000, guid: c9f2a3adc516516478373be0da22a3dd, type: 3}
    - {fileID: 21300000, guid: f6322cd5b2dc00d4283dce63688c54e1, type: 3}
    - {fileID: 21300000, guid: f63ff3736fe56364d95783a9a81bd186, type: 3}
    - {fileID: 21300000, guid: c0e145418bc251447a034d1b89ecb8da, type: 3}
    - {fileID: 21300000, guid: 8295e2d7d9a6c5f43ba4558b4dc246ed, type: 3}
    - {fileID: 21300000, guid: c0d0d0af820f4094cb0f739b96bdd45e, type: 3}
    - {fileID: 21300000, guid: 89b228e2fab990249b1e17aef92b2850, type: 3}
    - {fileID: 21300000, guid: 115b0630e53f253439dc9c6f16eea25d, type: 3}
  m_AnimationClipSettings:
    serializedVersion: 2
    m_AdditiveReferencePoseClip: {fileID: 0}
    m_AdditiveReferencePoseTime: 0
    m_StartTime: 0
    m_StopTime: 0.46666667
    m_OrientationOffsetY: 0
    m_Level: 0
    m_CycleOffset: 0
    m_HasAdditiveReferencePose: 0
    m_LoopTime: 0
    m_LoopBlend: 0
    m_LoopBlendOrientation: 0
    m_LoopBlendPositionY: 0
    m_LoopBlendPositionXZ: 0
    m_KeepOriginalOrientation: 0
    m_KeepOriginalPositionY: 1
    m_KeepOriginalPositionXZ: 0
    m_HeightFromFeet: 0
    m_Mirror: 0
  m_EditorCurves: []
  m_EulerEditorCurves: []
  m_HasGenericRootTransform: 0
  m_HasMotionFloatCurves: 0
  m_Events: []
